The paradox of the positive: exploratory tools for visualising the individuals in (multivariate) longitudinal data
…
<i class="fas  fa-hand-spock fa-2x faa-wrench animated faa-slow " style=" color:#75A34D;"></i> .large[.green[to explore the individuals]]

--

<i class="fas  fa-hand-peace fa-2x faa-vertical animated faa-slow " style=" color:#75A34D;"></i> .large[.orange[in the R package `brolgar`.]]

---

# What is the data structure

`brolgar` builds on `tsibble`, by Earo Wang. 

```
*## # A tsibble: 6,402 x 9 [!]
*## # Key:       id [888]
##       id ln_wages    xp   ged xp_since_ged black hispanic high_grade
##    <int>    <dbl> <dbl> <int>        <dbl> <int>    <int>      <int>
##  1    31     1.49 0.015     1        0.015     0        1          8
##  2    31     1.43 0.715     1        0.715     0        1          8
##  3    31     1.47 1.73      1        1.73      0        1          8
##  4    31     1.75 2.77      1        2.77      0        1          8
##  5    31     1.93 3.93      1        3.93      0        1          8
##  6    31     1.71 4.95      1        4.95      0        1          8
##  7    31     2.09 5.96      1        5.96      0        1          8
##  8    31     2.13 6.98      1        6.98      0        1          8
##  9    36     1.98 0.315     1        0.315     0        0          9
## 10    36     1.80 0.983     1        0.983     0        0          9
## # … with 6,392 more rows, and 1 more variable: unemploy_rate <dbl>
```
…
.pull-left[

```r
*wages <- wages %>% add_n_obs()
wages %>% 
* filter(n_obs > 3) %>%
  select(id, ln_wages, xp, n_obs)
```
]

.pull-right[

```
## # A tsibble: 6,145 x 4 [!]
*## # Key:       id [764]
##       id ln_wages    xp n_obs
##    <int>    <dbl> <dbl> <int>
##  1    31     1.49 0.015     8
##  2    31     1.43 0.715     8
##  3    31     1.47 1.73      8
##  4    31     1.75 2.77      8
##  5    31     1.93 3.93      8
##  6    31     1.71 4.95      8
##  7    31     2.09 5.96      8
##  8    31     2.13 6.98      8
##  9    36     1.98 0.315    10
## 10    36     1.80 0.983    10
## # … with 6,135 more rows
```
…
